{
    "number": "u1tr4c0014nds3cr3t",
    "comment": "Книга блогбук",
    "tariff_code": 139,
    "delivery_recipient_cost": {
        "value": 50,
        "vat_sum": 0,
        "vat_rate": null
    },
    "shipment_point": "MSK285",
    "to_location": {
        "address": "ул. Блюхера, 32"
    },
    "packages": [
        {
            "number": "bar-001",
            "items": [
                {
                    "ware_key": "Б",
                    "payment": {
                        "value": 0
                    },
                    "name": "Книга Блогбук",
                    "cost": 300,
                    "amount": 1,
                    "weight": 700
                }
            ],
            "height": 7,
            "length": 27,
            "width": 17,
            "weight": 4000
        }
    ],
    "recipient": {
        "name": "Иванов Иван",
        "phones": [
            {
                "number": "+79134637228"
            }
        ]
    }
}